Division,WeightClassKg,Place,Name,Team,BodyweightKg,Best3SquatKg,Best3BenchKg,Best3DeadliftKg,TotalKg,Equipment,Event,Sex,BirthDate
Boys,51.71,1,Cruz Vera,Conroe,51.71,122.47,72.57,133.81,328.85,Single-ply,SBD,M,
Boys,51.71,2,Aaron Hernandez,Conroe Grand Oaks,49.17,115.67,70.31,138.35,324.32,Single-ply,SBD,M,
Boys,51.71,3,Aramis Ibarra,Conroe Caney Creek,49.99,106.59,72.57,131.54,310.71,Single-ply,SBD,M,
Boys,51.71,4,M. Green,Huntsville,49.08,108.86,63.5,124.74,297.1,Single-ply,SBD,M,
Boys,51.71,5,William Thornton,Magnolia,48.72,92.99,74.84,106.59,274.42,Single-ply,SBD,M,
Boys,51.71,6,C Hooks,Huntsville,50.62,99.79,72.57,102.06,274.42,Single-ply,SBD,M,
Boys,51.71,7,Landon Arnold,Conroe The Woodlands,51.26,83.91,47.63,102.06,233.6,Single-ply,SBD,M,
Boys,55.79,1,Jacob Yeskie,Willis,55.61,140.61,92.99,145.15,378.75,Single-ply,SBD,M,
Boys,55.79,2,Damon Arnold,Conroe The Woodlands,54.16,129.27,92.99,147.42,369.68,Single-ply,SBD,M,
Boys,55.79,3,Conner Domingue,Magnolia,55.7,138.35,83.91,136.08,358.34,Single-ply,SBD,M,
Boys,55.79,4,Aaron Lynch #1,Conroe Grand Oaks,55.52,104.33,61.23,117.93,283.5,Single-ply,SBD,M,
Boys,55.79,5,Phoenix Matthews,Magnolia,53.98,106.59,63.5,111.13,281.23,Single-ply,SBD,M,
Boys,59.87,1,Caleb Abbott,Magnolia,59.87,174.63,113.4,174.63,462.66,Single-ply,SBD,M,
Boys,59.87,2,Hank Hewgley,Conroe The Woodlands,59.87,170.1,102.06,167.83,439.98,Single-ply,SBD,M,
Boys,59.87,3,Thineesha Weerasinghe,Conroe Grand Oaks,59.6,158.76,83.91,174.63,417.3,Single-ply,SBD,M,
Boys,59.87,4,Adrian Trejo,Conroe,59.87,129.27,97.52,161.03,387.82,Single-ply,SBD,M,
Boys,59.87,5,Owen Sims,Magnolia,56.88,142.88,97.52,142.88,383.29,Single-ply,SBD,M,
Boys,59.87,6,Jorn Halbaedier,Willis,57.88,133.81,72.57,147.42,353.8,Single-ply,SBD,M,
Boys,59.87,7,Lukas Alvarez,Conroe The Woodlands,57.79,122.47,68.04,158.76,349.27,Single-ply,SBD,M,
Boys,59.87,8,Adahir Landeros,Conroe,58.15,120.2,77.11,124.74,322.05,Single-ply,SBD,M,
Boys,59.87,9,Daniel Burgess,Conroe Woodlands College Park,58.51,111.13,68.04,127.01,306.17,Single-ply,SBD,M,
Boys,67.13,1,Joseph Tellez,Magnolia,66.04,185.97,122.47,195.04,503.49,Single-ply,SBD,M,
Boys,67.13,2,Andrew Veres,Conroe Woodlands College Park,65.32,190.51,113.4,188.24,492.15,Single-ply,SBD,M,
Boys,67.13,3,Nate Provost,Conroe The Woodlands,67.04,192.78,90.72,204.12,487.61,Single-ply,SBD,M,
Boys,67.13,4,Jerry Contreras,Conroe The Woodlands,66.13,190.51,92.99,201.85,485.34,Single-ply,SBD,M,
Boys,67.13,5,Tyler Higginbotham,Conroe The Woodlands,66.32,170.1,102.06,172.37,444.52,Single-ply,SBD,M,
Boys,67.13,6,C. Schroeder,Huntsville,65.68,142.88,90.72,176.9,410.5,Single-ply,SBD,M,
Boys,67.13,7,Adam Schultz,Magnolia,65.95,149.69,92.99,161.03,403.7,Single-ply,SBD,M,
Boys,67.13,8,Cyle Hutcherson,Conroe,63.59,138.35,92.99,158.76,390.09,Single-ply,SBD,M,
Boys,67.13,9,Trey Jackson,Conroe Caney Creek,66.86,142.88,83.91,156.49,383.29,Single-ply,SBD,M,
Boys,67.13,10,Noah Williams #2,Willis,64.05,145.15,65.77,165.56,376.48,Single-ply,SBD,M,
Boys,67.13,11,Roman Janusaitis,Magnolia,64.59,133.81,86.18,145.15,365.14,Single-ply,SBD,M,
Boys,67.13,12,Alex Espinoza,Conroe,67.04,120.2,86.18,151.95,358.34,Single-ply,SBD,M,
Boys,67.13,13,J Winfrey,Huntsville,64.77,136.08,63.5,149.69,349.27,Single-ply,SBD,M,
Boys,67.13,DQ,J Ruffin,Huntsville,63.05,,,,,Single-ply,SBD,M,
Boys,74.84,1,Rogelio Barrera,Conroe,69.94,224.53,145.15,254.01,623.69,Single-ply,SBD,M,
Boys,74.84,2,Daniel Gil,Conroe The Woodlands,67.59,210.92,142.88,242.67,596.47,Single-ply,SBD,M,
Boys,74.84,3,Jesse Rogers,Conroe Grand Oaks,74.66,195.04,122.47,192.78,510.29,Single-ply,SBD,M,
Boys,74.84,4,Drew Griffin,Conroe Grand Oaks,72.57,204.12,106.59,190.51,501.22,Single-ply,SBD,M,
Boys,74.84,5,Isaiah Vera,Conroe,72.76,179.17,133.81,183.7,496.68,Single-ply,SBD,M,
Boys,74.84,6,M Tatum,Huntsville,68.04,188.24,111.13,181.44,480.81,Single-ply,SBD,M,
Boys,74.84,7,Owen Cunningham,Magnolia,72.48,183.7,104.33,185.97,474,Single-ply,SBD,M,
Boys,74.84,8,K. Lee,Huntsville,71.58,154.22,108.86,185.97,449.06,Single-ply,SBD,M,
Boys,74.84,9,Saloman Huerta,Conroe Caney Creek,71.21,165.56,113.4,165.56,444.52,Single-ply,SBD,M,
Boys,74.84,10,Colton Olsen,Conroe Oak Ridge,73.66,176.9,97.52,170.1,444.52,Single-ply,SBD,M,
Boys,74.84,11,Kaden Fitch,Willis,69.94,165.56,90.72,183.7,439.98,Single-ply,SBD,M,
Boys,74.84,12,Hunter Fisher,Conroe,74.75,156.49,102.06,147.42,405.97,Single-ply,SBD,M,
Boys,74.84,13,Gonzalo Diaz,Conroe Caney Creek,72.12,179.17,117.93,,297.1,Single-ply,SB,M,
Boys,82.1,1,Mauricio Kerguelen,Conroe The Woodlands,77.11,219.99,136.08,192.78,548.85,Single-ply,SBD,M,
Boys,82.1,2,Hector Gonzalez,Conroe,81.65,201.85,127.01,183.7,512.56,Single-ply,SBD,M,
Boys,82.1,3,Nicolas Alfaro,Conroe Woodlands College Park,79.74,174.63,117.93,208.65,501.22,Single-ply,SBD,M,
Boys,82.1,4,Hunter Knight,Willis,81.56,192.78,90.72,190.51,474,Single-ply,SBD,M,
Boys,82.1,5,C Skeens,Huntsville,79.83,156.49,90.72,167.83,415.04,Single-ply,SBD,M,
Boys,82.1,6,Emiliano Molinar,Conroe Woodlands College Park,81.92,142.88,104.33,151.95,399.16,Single-ply,SBD,M,
Boys,82.1,7,I Collins,Huntsville,78.29,136.08,92.99,158.76,387.82,Single-ply,SBD,M,
Boys,82.1,8,S. Jones #26,Huntsville,76.84,129.27,83.91,142.88,356.07,Single-ply,SBD,M,
Boys,82.1,DQ,Jonathan Seibert,Conroe Caney Creek,78.02,,,,,Single-ply,SBD,M,
Boys,82.1,DQ,John Milo,Conroe Caney Creek,82.1,192.78,,,,Single-ply,SBD,M,
Boys,82.1,DQ,Jeremy Soto,Conroe Caney Creek,75.11,210.92,,,,Single-ply,SBD,M,
Boys,82.1,DQ,Sean Smith #9,Magnolia,78.11,183.7,,,,Single-ply,SBD,M,
Boys,89.81,1,Christian Cook,Magnolia,87.63,215.46,165.56,217.72,598.74,Single-ply,SBD,M,
Boys,89.81,2,Andrew Ortiz,Magnolia,87.63,229.06,142.88,222.26,594.21,Single-ply,SBD,M,
Boys,89.81,3,Brian Leonardo,Conroe Oak Ridge,86,226.8,156.49,190.51,573.79,Single-ply,SBD,M,
Boys,89.81,4,Zach Lunn,Conroe Grand Oaks,86.91,213.19,138.35,208.65,560.19,Single-ply,SBD,M,
Boys,89.81,5,Gabriel Trujillo,Conroe Oak Ridge,89.27,226.8,115.67,215.46,557.92,Single-ply,SBD,M,
Boys,89.81,6,Ian Pippins-Moon,Magnolia,88.81,226.8,113.4,192.78,532.97,Single-ply,SBD,M,
Boys,89.81,7,Connor Ritter,Conroe Woodlands College Park,87.27,183.7,145.15,172.37,501.22,Single-ply,SBD,M,
Boys,89.81,8,B Redd,Huntsville,84.46,172.37,140.61,185.97,498.95,Single-ply,SBD,M,
Boys,89.81,9,Dennis Jimenez,Conroe Caney Creek,84.28,174.63,124.74,174.63,474,Single-ply,SBD,M,
Boys,89.81,10,Jon Loar,Willis,86.18,176.9,106.59,190.51,474,Single-ply,SBD,M,
Boys,89.81,11,A Sandals,Huntsville,85.28,167.83,111.13,172.37,451.32,Single-ply,SBD,M,
Boys,89.81,12,B. Ross,Huntsville,82.55,170.1,90.72,181.44,442.25,Single-ply,SBD,M,
Boys,99.79,1,Alex Martin #2,Conroe The Woodlands,98.52,265.35,147.42,233.6,646.37,Single-ply,SBD,M,
Boys,99.79,2,Cayden Clayton,Conroe The Woodlands,94.98,238.14,142.88,222.26,603.28,Single-ply,SBD,M,
Boys,99.79,3,Francisco Tirado,Magnolia,99.06,240.4,151.95,204.12,596.47,Single-ply,SBD,M,
Boys,99.79,4,Connor Jones,Magnolia,93.71,204.12,138.35,233.6,576.06,Single-ply,SBD,M,
Boys,99.79,5,C. Hall,Huntsville,92.8,195.04,151.95,217.72,564.72,Single-ply,SBD,M,
Boys,99.79,6,Gage Patchke,Magnolia,99.34,215.46,120.2,204.12,539.77,Single-ply,SBD,M,
Boys,99.79,7,Josh Gardner,Magnolia,93.62,170.1,92.99,151.95,415.04,Single-ply,SBD,M,
Boys,99.79,8,E Mendoza,Huntsville,93.08,170.1,79.38,163.29,412.77,Single-ply,SBD,M,
Boys,99.79,DQ,Trevor Kirby,Magnolia,95.25,,,,,Single-ply,SBD,M,
Boys,99.79,DQ,Timothy Garza,Conroe Caney Creek,92.08,,,,,Single-ply,SBD,M,
Boys,99.79,DQ,Joshua Barrera,Conroe,99.79,156.49,,,,Single-ply,SBD,M,
Boys,109.77,1,Perry Irchirl,Conroe Woodlands College Park,106.96,235.87,142.88,274.42,653.17,Single-ply,SBD,M,
Boys,109.77,2,Jacob Pitzer,Conroe,109.77,251.74,151.95,238.14,641.83,Single-ply,SBD,M,
Boys,109.77,3,Sean Calkin,Willis,104.42,249.48,124.74,226.8,601.01,Single-ply,SBD,M,
Boys,109.77,4,Kory Ford,Willis,104.05,215.46,136.08,229.06,580.6,Single-ply,SBD,M,
Boys,109.77,5,Grant Harrison Cloud,Conroe Grand Oaks,107.95,197.31,95.25,219.99,512.56,Single-ply,SBD,M,
Boys,109.77,6,Cameron Hall #2,Conroe Woodlands College Park,103.69,197.31,129.27,183.7,510.29,Single-ply,SBD,M,
Boys,109.77,7,M. Fisher,Huntsville,109.13,199.58,111.13,195.04,505.76,Single-ply,SBD,M,
Boys,109.77,8,Peyton Robinson,Conroe Woodlands College Park,105.87,197.31,111.13,181.44,489.88,Single-ply,SBD,M,
Boys,109.77,9,Vance Vingilio,Conroe Oak Ridge,107.86,188.24,113.4,179.17,480.81,Single-ply,SBD,M,
Boys,109.77,DQ,Payton Korolyk,Conroe Grand Oaks,109.32,283.5,183.7,,,Single-ply,SBD,M,
Boys,109.77,DQ,Bra'Sean Brown,Conroe,103.87,,,,,Single-ply,SBD,M,
Boys,109.77,DQ,Kaleb Sprayberry,Willis,106.5,201.85,115.67,,,Single-ply,SBD,M,
Boys,124.74,1,Aiden Garris,Conroe Oak Ridge,117.21,265.35,163.29,217.72,646.37,Single-ply,SBD,M,
Boys,124.74,2,Cobe Williams,Conroe Woodlands College Park,122.47,240.4,167.83,233.6,641.83,Single-ply,SBD,M,
Boys,124.74,3,Ford Ivey,Willis,121.47,229.06,176.9,226.8,632.76,Single-ply,SBD,M,
Boys,124.74,4,J. Smith,Huntsville,120.29,240.4,131.54,219.99,591.94,Single-ply,SBD,M,
Boys,124.74,5,Walker Mott,Conroe Oak Ridge,122.83,213.19,145.15,204.12,562.45,Single-ply,SBD,M,
Boys,124.74,6,Aaron Pereyra,Conroe Grand Oaks,121.02,226.8,111.13,183.7,521.63,Single-ply,SBD,M,
Boys,124.74,7,Alex Fisher,Conroe Woodlands College Park,111.31,181.44,127.01,185.97,494.42,Single-ply,SBD,M,
Boys,124.74,8,Carson Berg,Conroe Woodlands College Park,120.66,197.31,131.54,142.88,471.74,Single-ply,SBD,M,
Boys,124.74,9,J Casanova,Huntsville,118.93,195.04,106.59,149.69,451.32,Single-ply,SBD,M,
Boys,124.74,DQ,Marque Johnson #3,Conroe,116.57,,,,,Single-ply,SBD,M,
Boys,139.71,1,Chris Smith #7,Huntsville,127.91,258.55,136.08,226.8,621.42,Single-ply,SBD,M,
Boys,139.71,2,Cameron Del Rey,Conroe Oak Ridge,128,231.33,156.49,222.26,610.08,Single-ply,SBD,M,
Boys,139.71,3,Chance Jackson,Conroe Woodlands College Park,129.64,215.46,181.44,199.58,596.47,Single-ply,SBD,M,
Boys,139.71,4,Diego Guzman #2,Conroe Oak Ridge,135.9,201.85,108.86,195.04,505.76,Single-ply,SBD,M,
Boys,139.71,5,J Barkin,Huntsville,127.64,122.47,68.04,145.15,335.66,Single-ply,SBD,M,
Boys,139.71,DQ,Jamarian Jackson,Conroe Grand Oaks,138.35,,,,,Single-ply,SBD,M,
Boys,139.71+,1,Christian King,Conroe Oak Ridge,150.77,201.85,120.2,165.56,487.61,Single-ply,SBD,M,
Boys,139.71+,2,B McGraw,Huntsville,183.25,167.83,79.38,172.37,419.57,Single-ply,SBD,M,
Boys,139.71+,DQ,T. Rose,Huntsville,140.25,272.16,145.15,,,Single-ply,SBD,M,
