Division,WeightClassKg,Place,Name,Team,BodyweightKg,Best3SquatKg,Best3BenchKg,Best3DeadliftKg,TotalKg,Equipment,Event,Sex,BirthDate
Boys,51.71,1,Brodie Flores,Victoria West,50.17,156.49,90.72,165.56,412.77,Unlimited,SBD,M,
Boys,51.71,2,Victor Madrigal,San Diego,48.99,127.01,70.31,133.81,331.12,Unlimited,SBD,M,
Boys,51.71,3,Zeke Orosco,Carrizo Springs,46.54,52.16,68.04,106.59,226.8,Unlimited,SBD,M,
Boys,55.79,1,Derick Lara,San Diego,55.43,133.81,83.91,149.69,367.41,Unlimited,SBD,M,
Boys,55.79,2,Matthew Williams,Victoria West,55.79,142.88,79.38,145.15,367.41,Unlimited,SBD,M,
Boys,55.79,3,Damien Jimenez,Hebbronville,52.25,127.01,81.65,131.54,340.19,Unlimited,SBD,M,
Boys,59.87,1,Sammy Ronje,Bishop,59.42,195.04,136.08,197.31,528.44,Unlimited,SBD,M,
Boys,59.87,2,Tre Galvan,Bishop,59.87,185.97,106.59,197.31,489.88,Unlimited,SBD,M,
Boys,59.87,3,Romulo Torres,San Diego,59.87,183.7,102.06,197.31,483.08,Unlimited,SBD,M,
Boys,59.87,4,Esteban Ramirez,Hebbronville,57.33,174.63,83.91,167.83,426.38,Unlimited,SBD,M,
Boys,59.87,DQ,Luis Lopez,Hebbronville,59.51,,,,,Unlimited,SBD,M,
Boys,67.13,1,Mason Gwosdz,Victoria East,66.13,254.01,145.15,238.14,637.3,Unlimited,SBD,M,
Boys,67.13,2,Mark Diaz,Bishop,66.22,192.78,106.59,190.51,489.88,Unlimited,SBD,M,
Boys,67.13,3,Isaiah Saenz,San Diego,67.04,174.63,102.06,192.78,469.47,Unlimited,SBD,M,
Boys,67.13,4,Preston Vela,Robstown,65.32,151.95,79.38,176.9,408.23,Unlimited,SBD,M,
Boys,67.13,5,Isaiah Gonzalez,Victoria East,64.41,154.22,86.18,154.22,394.63,Unlimited,SBD,M,
Boys,67.13,6,Conrad Villanueva,Robstown,65.32,154.22,77.11,149.69,381.02,Unlimited,SBD,M,
Boys,67.13,7,Jaden Garcia,Bishop,63.05,136.08,77.11,142.88,356.07,Unlimited,SBD,M,
Boys,67.13,8,Armando Vela,Robstown,65.32,117.93,79.38,145.15,342.46,Unlimited,SBD,M,
Boys,67.13,9,Landen Contreras,Bishop,61.69,79.38,38.56,88.45,206.38,Unlimited,SBD,M,
Boys,67.13,DQ,Wyatt Sharp,Hebbronville,63.5,136.08,86.18,,,Unlimited,SBD,M,
Boys,74.84,1,Randal Delgado,Victoria East,74.12,249.48,158.76,231.33,639.57,Unlimited,SBD,M,
Boys,74.84,2,Jesus Jimenez,Hebbronville,74.84,199.58,113.4,213.19,526.17,Unlimited,SBD,M,
Boys,74.84,3,Jared Rodriguez,San Diego,73.94,195.04,111.13,199.58,505.76,Unlimited,SBD,M,
Boys,74.84,4,Garon Ortiz,San Diego,74.21,183.7,127.01,183.7,494.42,Unlimited,SBD,M,
Boys,74.84,5,Aiden Carbajal,Victoria West,70.85,172.37,111.13,183.7,467.2,Unlimited,SBD,M,
Boys,74.84,6,Ryan DeLuna,Robstown,74.12,161.03,124.74,176.9,462.66,Unlimited,SBD,M,
Boys,74.84,7,Ian Gest,Carrizo Springs,73.3,129.27,111.13,156.49,396.89,Unlimited,SBD,M,
Boys,82.1,1,Chayse Mrazek,Bishop,81.74,226.8,158.76,226.8,612.35,Unlimited,SBD,M,
Boys,82.1,2,Jordan Stafford,Victoria East,81.74,229.06,136.08,222.26,587.4,Unlimited,SBD,M,
Boys,82.1,3,Michael Reyes,Carrizo Springs,80.1,174.63,147.42,201.85,523.9,Unlimited,SBD,M,
Boys,82.1,4,Levi Martinez,Hebbronville,82.1,195.04,127.01,188.24,510.29,Unlimited,SBD,M,
Boys,82.1,5,Carlos Salazar,Carrizo Springs,75.02,183.7,115.67,183.7,483.08,Unlimited,SBD,M,
Boys,82.1,6,Georgio Garcia,Victoria West,79.74,165.56,117.93,133.81,417.3,Unlimited,SBD,M,
Boys,89.81,1,Kayden Leal,Victoria West,84.82,240.4,156.49,224.53,621.42,Unlimited,SBD,M,
Boys,89.81,2,Cael Francis,Victoria West,88.99,217.72,156.49,226.8,601.01,Unlimited,SBD,M,
Boys,89.81,3,Kason Gonzalez,Victoria West,82.74,192.78,124.74,229.06,546.58,Unlimited,SBD,M,
Boys,89.81,4,Gabriel García,Victoria East,87.27,204.12,124.74,210.92,539.77,Unlimited,SBD,M,
Boys,89.81,5,Christian Diaz,Victoria West,85.73,183.7,117.93,208.65,510.29,Unlimited,SBD,M,
Boys,89.81,6,Kevin Guajardo,Bishop,89.81,165.56,142.88,183.7,492.15,Unlimited,SBD,M,
Boys,89.81,DQ,Noah Neibrandt,Victoria West,86.82,260.82,,,,Unlimited,SBD,M,
Boys,89.81,DQ,Derek Barrera,San Diego,82.64,201.85,,,,Unlimited,SBD,M,
Boys,99.79,1,Leo Herrera,Hebbronville,99.34,244.94,170.1,272.16,687.19,Unlimited,SBD,M,
Boys,99.79,2,Miguel Silva,Carrizo Springs,96.25,224.53,149.69,238.14,612.35,Unlimited,SBD,M,
Boys,99.79,3,Jesse Cordova,Carrizo Springs,98.61,204.12,156.49,204.12,564.72,Unlimited,SBD,M,
Boys,99.79,4,Jackson Bryd,Victoria West,96.8,192.78,145.15,190.51,528.44,Unlimited,SBD,M,
Boys,99.79,5,Tony Tamez,Hebbronville,95.35,195.04,111.13,201.85,508.02,Unlimited,SBD,M,
Boys,99.79,6,Brenham Tumlinson,Victoria East,90.99,183.7,124.74,165.56,474,Unlimited,SBD,M,
Boys,99.79,7,Connor Bienek,Victoria East,93.35,158.76,113.4,190.51,462.66,Unlimited,SBD,M,
Boys,99.79,8,Jordan Trujillo,Carrizo Springs,99.06,142.88,133.81,161.03,437.72,Unlimited,SBD,M,
Boys,99.79,DQ,Matthew Gutierrez,Carrizo Springs,99.79,,,,,Unlimited,SBD,M,
Boys,109.77,1,Andrew Torres,Carrizo Springs,105.41,274.42,181.44,215.46,671.32,Unlimited,SBD,M,
Boys,109.77,2,Jose Alaniz,Hebbronville,108.32,249.48,183.7,219.99,653.17,Unlimited,SBD,M,
Boys,109.77,3,Gabriel García,Victoria West,108.86,251.74,161.03,176.9,589.67,Unlimited,SBD,M,
Boys,109.77,4,Julio Jimenez,Carrizo Springs,103.78,204.12,127.01,224.53,555.65,Unlimited,SBD,M,
Boys,109.77,5,Marcos Garcia,Carrizo Springs,102.6,183.7,127.01,199.58,510.29,Unlimited,SBD,M,
Boys,109.77,6,Manuel Gutierrez,Carrizo Springs,106.78,197.31,147.42,165.56,510.29,Unlimited,SBD,M,
Boys,109.77,7,Marcel Molina,San Diego,102.33,192.78,129.27,183.7,505.76,Unlimited,SBD,M,
Boys,109.77,8,Izaiah Ruiz,San Diego,105.51,183.7,127.01,183.7,494.42,Unlimited,SBD,M,
Boys,109.77,9,Valentin Gonzalez,Bishop,103.15,170.1,111.13,192.78,474,Unlimited,SBD,M,
Boys,109.77,10,Brandon Pena,Hebbronville,105.87,185.97,97.52,183.7,467.2,Unlimited,SBD,M,
Boys,124.74,1,Ariel Alvarado,San Diego,120.29,306.17,158.76,206.38,671.32,Unlimited,SBD,M,
Boys,124.74,2,Dominic Romero,San Diego,110.59,249.48,158.76,226.8,635.03,Unlimited,SBD,M,
Boys,124.74,3,Elijah Flores,Victoria West,121.29,226.8,133.81,192.78,553.38,Unlimited,SBD,M,
Boys,124.74,4,Jonathan Rivera,Victoria East,122.65,199.58,147.42,181.44,528.44,Unlimited,SBD,M,
Boys,124.74,5,Zachary Vela,Robstown,113.22,190.51,142.88,165.56,498.95,Unlimited,SBD,M,
Boys,124.74,6,Keath Taylor,Carrizo Springs,122.11,151.95,138.35,185.97,476.27,Unlimited,SBD,M,
Boys,124.74,7,Rey Lopez,Carrizo Springs,113.31,161.03,74.84,154.22,390.09,Unlimited,SBD,M,
Boys,124.74,8,Adam Gallegos,San Diego,110.22,142.88,79.38,120.2,342.46,Unlimited,SBD,M,
Boys,124.74,DQ,Alexander Pesina,Robstown,117.21,,,,,Unlimited,SBD,M,
Boys,124.74,DQ,Damien Rosales,Victoria West,124.74,149.69,131.54,,,Unlimited,SBD,M,
Boys,139.71,1,Jaeden Fraire,Victoria West,135.62,240.4,142.88,226.8,610.08,Unlimited,SBD,M,
Boys,139.71,2,Kaleb Cruz,Carrizo Springs,126.55,154.22,79.38,161.03,394.63,Unlimited,SBD,M,
Boys,139.71+,1,Jerry Rodriguez,Carrizo Springs,144.33,201.85,117.93,235.87,555.65,Unlimited,SBD,M,
Boys,,NS,Reymundo Falcon,Carrizo Springs,,,,,,Unlimited,SBD,M,
Boys,,NS,Sonny Alaniz,Bishop,,,,,,Unlimited,SBD,M,
Boys,,NS,Julio Palomo,Bishop,,,,,,Unlimited,SBD,M,
Boys,,NS,Alejandro Bustamante,Carrizo Springs,,,,,,Unlimited,SBD,M,
Boys,,NS,Rocky Aguirre,Carrizo Springs,,,,,,Unlimited,SBD,M,
Boys,,NS,Michael Titsworth,Carrizo Springs,,,,,,Unlimited,SBD,M,
Boys,,NS,Javier Santos,Carrizo Springs,,,,,,Unlimited,SBD,M,
Boys,,NS,Jaydon Thomas,Victoria West,,,,,,Unlimited,SBD,M,
Boys,,NS,Ricardo Ruiz,Robstown,,,,,,Unlimited,SBD,M,
Boys,,NS,Mario Gonzalez,Hebbronville,,,,,,Unlimited,SBD,M,
Boys,,NS,Siah Moss,Hebbronville,,,,,,Unlimited,SBD,M,
Boys,,NS,Aiden Solis,Hebbronville,,,,,,Unlimited,SBD,M,
