Division,WeightClassKg,Place,Name,Team,BodyweightKg,Best3SquatKg,Best3BenchKg,Best3DeadliftKg,TotalKg,Equipment,Event,Sex,BirthDate
Boys,51.71,1,Carlos Cantu,McAllen Memorial,49.17,147.42,88.45,158.76,394.63,Unlimited,SBD,M,
Boys,51.71,2,Christopher Martinez,Mission,47.54,124.74,86.18,136.08,347,Unlimited,SBD,M,
Boys,51.71,3,Ryan Lugo,San Benito,49.71,129.27,79.38,131.54,340.19,Unlimited,SBD,M,
Boys,51.71,4,Haziel Guzman,Mission Sharyland,50.44,111.13,74.84,133.81,319.78,Unlimited,SBD,M,
Boys,51.71,DQ,Gabriel Guzman,Mission Sharyland,51.62,183.7,,,,Unlimited,SBD,M,
Boys,51.71,DQ,Dereck Liga,Edinburg Economedes,46.81,90.72,,,,Unlimited,SBD,M,
Boys,55.79,1,Ethan Hernandez,Harlingen South,54.52,199.58,136.08,176.9,512.56,Unlimited,SBD,M,
Boys,55.79,2,Cesar Perez,Edcouch-Elsa,55.66,183.7,124.74,204.12,512.56,Unlimited,SBD,M,
Boys,55.79,3,Dashel Burrows,Sharyland Pioneer,52.25,165.56,95.25,161.03,421.84,Unlimited,SBD,M,
Boys,55.79,4,Mauro Moreno,Edcouch-Elsa,54.98,111.13,79.38,136.08,326.59,Unlimited,SBD,M,
Boys,59.87,1,Rick Reyna,McAllen Memorial,59.06,206.38,106.59,226.8,539.77,Unlimited,SBD,M,
Boys,59.87,2,Angel Trevino,San Benito,59.69,188.24,127.01,183.7,498.95,Unlimited,SBD,M,
Boys,59.87,3,Matthew Sanchez,Mission Veterans Memorial,59.87,197.31,113.4,167.83,478.54,Unlimited,SBD,M,
Boys,59.87,4,Ruben Robles Jr,McAllen Memorial,59.24,165.56,111.13,185.97,462.66,Unlimited,SBD,M,
Boys,59.87,5,Justin Flores,Edcouch-Elsa,59.87,188.24,79.38,195.04,462.66,Unlimited,SBD,M,
Boys,59.87,6,Dionicio Gutierrez,Mission Veterans Memorial,59.87,167.83,111.13,170.1,449.06,Unlimited,SBD,M,
Boys,59.87,7,Darrius Capetillo,McAllen Memorial,59.19,174.63,88.45,174.63,437.72,Unlimited,SBD,M,
Boys,59.87,8,Lucien Martinez,Mission Sharyland,58.97,172.37,86.18,170.1,428.64,Unlimited,SBD,M,
Boys,59.87,9,Sebastian Loredo,Edinburg Economedes,59.87,138.35,97.52,147.42,383.29,Unlimited,SBD,M,
Boys,59.87,10,Gael Espino,Edinburg,56.97,136.08,86.18,156.49,378.75,Unlimited,SBD,M,
Boys,59.87,11,Homer Camacho,PSJA Memorial,59.87,124.74,79.38,127.01,331.12,Unlimited,SBD,M,
Boys,59.87,12,Jose Saenz III,Mission Sharyland,59.87,120.2,79.38,129.27,328.85,Unlimited,SBD,M,
Boys,59.87,DQ,Christopher Laboy,Mission,59.87,83.91,,,,Unlimited,SBD,M,
Boys,67.13,1,Trystan Rojas,Edcouch-Elsa,66.5,217.72,120.2,192.78,530.7,Unlimited,SBD,M,
Boys,67.13,2,Esmael Rodriguez,Edcouch-Elsa,66.95,204.12,111.13,201.85,517.1,Unlimited,SBD,M,
Boys,67.13,3,Isaiah Casas,Mission Veterans Memorial,65.95,174.63,138.35,176.9,489.88,Unlimited,SBD,M,
Boys,67.13,4,Adrian Esparza,Sharyland Pioneer,66.86,183.7,108.86,179.17,471.74,Unlimited,SBD,M,
Boys,67.13,5,Damian Hernandez,Sharyland Pioneer,66.22,181.44,106.59,176.9,464.93,Unlimited,SBD,M,
Boys,67.13,6,Guadelupe Hernandez,McAllen,65.32,156.49,115.67,183.7,455.86,Unlimited,SBD,M,
Boys,67.13,7,Rolando Saenz,Edinburg,66.5,165.56,106.59,170.1,442.25,Unlimited,SBD,M,
Boys,67.13,8,Xavier Molder,McAllen,65.59,156.49,111.13,172.37,439.98,Unlimited,SBD,M,
Boys,67.13,9,Gio Villasana,Edinburg,65.59,183.7,88.45,156.49,428.64,Unlimited,SBD,M,
Boys,67.13,10,Cecilio Pacheco,Edinburg Economedes,67.13,129.27,111.13,176.9,417.3,Unlimited,SBD,M,
Boys,67.13,11,Matthew Esparza,Sharyland Pioneer,64.59,149.69,88.45,165.56,403.7,Unlimited,SBD,M,
Boys,67.13,12,Axel Colunga,McAllen,65.5,149.69,99.79,147.42,396.89,Unlimited,SBD,M,
Boys,67.13,13,Edrik Rodriguez,Mission Sharyland,61.6,131.54,79.38,149.69,360.61,Unlimited,SBD,M,
Boys,67.13,DQ,Sebastian Islas,McAllen Rowe,63.23,179.17,,,,Unlimited,SBD,M,
Boys,67.13,DQ,Diego Mercado,McAllen Rowe,64.77,247.21,,,,Unlimited,SBD,M,
Boys,74.84,1,Anthony Little,McAllen Memorial,74.03,233.6,138.35,235.87,607.81,Unlimited,SBD,M,
Boys,74.84,2,Issac Estrada,Edcouch-Elsa,74.12,238.14,122.47,224.53,585.13,Unlimited,SBD,M,
Boys,74.84,3,Ryan Guerra,Mission Veterans Memorial,73.75,215.46,142.88,204.12,562.45,Unlimited,SBD,M,
Boys,74.84,4,Adan Ramirez,McAllen Rowe,70.4,208.65,142.88,208.65,560.19,Unlimited,SBD,M,
Boys,74.84,5,Jacob Jimenez,PSJA Memorial,74.3,204.12,131.54,215.46,551.11,Unlimited,SBD,M,
Boys,74.84,6,Isaac Santoyo,McAllen,73.84,208.65,142.88,181.44,532.97,Unlimited,SBD,M,
Boys,74.84,7,Eric Adrian,McAllen Memorial,72.57,206.38,113.4,192.78,512.56,Unlimited,SBD,M,
Boys,74.84,8,Eduardo Garza,Mission,74.48,188.24,129.27,188.24,505.76,Unlimited,SBD,M,
Boys,74.84,9,Iban Ramirez,McAllen Rowe,70.49,206.38,102.06,181.44,489.88,Unlimited,SBD,M,
Boys,74.84,10,Alex Martinez,Harlingen South,70.49,181.44,120.2,181.44,483.08,Unlimited,SBD,M,
Boys,74.84,11,Zack Gonzalez,Edinburg,73.39,192.78,97.52,165.56,455.86,Unlimited,SBD,M,
Boys,74.84,12,Joshua Tanguma,Mission Sharyland,67.95,170.1,99.79,151.95,421.84,Unlimited,SBD,M,
Boys,74.84,13,David Solis,Mission Sharyland,73.48,131.54,81.65,140.61,353.8,Unlimited,SBD,M,
Boys,74.84,14,Gilberto Castillo,Edinburg Economedes,71.3,102.06,92.99,79.38,274.42,Unlimited,SBD,M,
Boys,74.84,DQ,Edwin Gaytan,Edinburg Economedes,72.94,151.95,90.72,,,Unlimited,SBD,M,
Boys,74.84,DQ,Diego Mendez,Roma,67.95,145.15,79.38,,,Unlimited,SBD,M,
Boys,74.84,DQ,Adam Rocha,Sharyland Pioneer,73.3,195.04,106.59,,,Unlimited,SBD,M,
Boys,74.84,DQ,Eduardo Cervantes,McAllen,74.75,226.8,147.42,,,Unlimited,SBD,M,
Boys,74.84,DQ,Joseph Padron,Mission Sharyland,71.12,199.58,131.54,,,Unlimited,SBD,M,
Boys,82.1,1,Heston Garza,Edcouch-Elsa,81.74,265.35,138.35,229.06,632.76,Unlimited,SBD,M,
Boys,82.1,2,Marcelo Cantu,Mission Veterans Memorial,80.74,251.74,140.61,229.06,621.42,Unlimited,SBD,M,
Boys,82.1,3,Diego De Saavedra,McAllen,79.02,226.8,172.37,213.19,612.35,Unlimited,SBD,M,
Boys,82.1,4,Jose Elias,McAllen,75.75,190.51,149.69,201.85,542.04,Unlimited,SBD,M,
Boys,82.1,5,Mikey Gonzalez,Harlingen South,81.37,208.65,111.13,204.12,523.9,Unlimited,SBD,M,
Boys,82.1,6,Nestor Gonzalez,Mission Veterans Memorial,78.11,188.24,138.35,188.24,514.83,Unlimited,SBD,M,
Boys,82.1,7,Javier Garcia,McAllen,79.29,192.78,145.15,170.1,508.02,Unlimited,SBD,M,
Boys,82.1,8,Leonardo Trevino,Mission Sharyland,80.65,201.85,122.47,183.7,508.02,Unlimited,SBD,M,
Boys,82.1,9,Fernando Morales,Edinburg Economedes,79.2,192.78,113.4,195.04,501.22,Unlimited,SBD,M,
Boys,82.1,10,Osmar Garcia,McAllen Rowe,80.38,210.92,95.25,183.7,489.88,Unlimited,SBD,M,
Boys,82.1,11,Aleks Suarez,McAllen Rowe,76.48,176.9,115.67,170.1,462.66,Unlimited,SBD,M,
Boys,82.1,12,Mason Cantu,McAllen,76.66,158.76,111.13,188.24,458.13,Unlimited,SBD,M,
Boys,82.1,13,Angel Castillo,McAllen,79.83,176.9,111.13,170.1,458.13,Unlimited,SBD,M,
Boys,82.1,14,Noah Garcia,Edinburg,79.74,167.83,111.13,167.83,446.79,Unlimited,SBD,M,
Boys,82.1,15,Samual Hefley,McAllen,80.74,165.56,111.13,149.69,426.38,Unlimited,SBD,M,
Boys,82.1,16,Miguel Barrios,Edinburg Economedes,76.84,161.03,92.99,167.83,421.84,Unlimited,SBD,M,
Boys,82.1,DQ,Daniel Tirado,San Benito,77.66,226.8,156.49,,,Unlimited,SBD,M,
Boys,89.81,1,Patricio Garcia-Quiroz,McAllen Rowe,89.81,238.14,183.7,213.19,635.03,Unlimited,SBD,M,
Boys,89.81,2,Thomas Munoz,Edcouch-Elsa,89.63,247.21,151.95,215.46,614.62,Unlimited,SBD,M,
Boys,89.81,3,Marc Sanchez,San Benito,85,226.8,156.49,210.92,594.21,Unlimited,SBD,M,
Boys,89.81,4,Samuel Mata,Sharyland Pioneer,89.81,210.92,147.42,208.65,566.99,Unlimited,SBD,M,
Boys,89.81,5,Dylan Tijerina,Sharyland Pioneer,89.18,213.19,122.47,229.06,564.72,Unlimited,SBD,M,
Boys,89.81,6,Orvelin Nunez,Edinburg Economedes,85.73,190.51,133.81,226.8,551.11,Unlimited,SBD,M,
Boys,89.81,7,Ediel Garcia,Roma,89.81,226.8,115.67,204.12,546.58,Unlimited,SBD,M,
Boys,89.81,8,Jeremiah Salinas,Edinburg,88.81,185.97,122.47,195.04,503.49,Unlimited,SBD,M,
Boys,89.81,9,Devin Torres,Mission,88.18,192.78,113.4,195.04,501.22,Unlimited,SBD,M,
Boys,89.81,10,Luis Moreno,Edinburg,88,161.03,102.06,206.38,469.47,Unlimited,SBD,M,
Boys,89.81,11,Elian Cruz,Roma,87.18,181.44,102.06,183.7,467.2,Unlimited,SBD,M,
Boys,89.81,12,Julio Garcia,Edinburg Economedes,86.36,154.22,88.45,167.83,410.5,Unlimited,SBD,M,
Boys,89.81,DQ,Daniel De La Cruz,McAllen Memorial,88.81,238.14,,,,Unlimited,SBD,M,
Boys,99.79,1,Gilbert Lerma,Harlingen South,99.79,260.82,183.7,242.67,687.19,Unlimited,SBD,M,
Boys,99.79,2,Isaac Ramirez,San Benito,95.16,272.16,147.42,263.08,682.66,Unlimited,SBD,M,
Boys,99.79,3,Artemio Belmontes,Roma,99.79,294.84,142.88,235.87,673.58,Unlimited,SBD,M,
Boys,99.79,4,Chris Deleon,Sharyland Pioneer,99.52,226.8,142.88,219.99,589.67,Unlimited,SBD,M,
Boys,99.79,5,Mark Hernandez,Edcouch-Elsa,99.16,240.4,138.35,208.65,587.4,Unlimited,SBD,M,
Boys,99.79,6,Nick Garza,PSJA Memorial,94.26,229.06,131.54,224.53,585.13,Unlimited,SBD,M,
Boys,99.79,7,Alejandro Rodriguez,McAllen Rowe,99.7,235.87,147.42,192.78,576.06,Unlimited,SBD,M,
Boys,99.79,8,Joseph Perez,Edinburg,95.25,219.99,120.2,208.65,548.85,Unlimited,SBD,M,
Boys,99.79,9,Rene Aguirre,Roma,99.79,210.92,149.69,183.7,544.31,Unlimited,SBD,M,
Boys,99.79,10,Jaiden De Leon,McAllen Rowe,94.8,204.12,138.35,185.97,528.44,Unlimited,SBD,M,
Boys,99.79,11,John Salazar,McAllen Rowe,96.98,206.38,147.42,174.63,528.44,Unlimited,SBD,M,
Boys,99.79,12,Alessandro Garfaiz,Mission,99.79,136.08,113.4,158.76,408.23,Unlimited,SBD,M,
Boys,99.79,DQ,Tomas Longoria,Harlingen South,90.72,,,,,Unlimited,SBD,M,
Boys,109.77,1,Reno Villanueva,Harlingen South,105.41,263.08,172.37,226.8,662.24,Unlimited,SBD,M,
Boys,109.77,2,Jozef Baldado,Mission Sharyland,101.33,272.16,151.95,217.72,641.83,Unlimited,SBD,M,
Boys,109.77,3,Ramiro Cardoza,Edcouch-Elsa,109.54,249.48,147.42,238.14,635.03,Unlimited,SBD,M,
Boys,109.77,4,Ethan Ruiz,San Benito,100.79,240.4,165.56,208.65,614.62,Unlimited,SBD,M,
Boys,109.77,5,Domingo Villareal,Mission,109.32,199.58,165.56,226.8,591.94,Unlimited,SBD,M,
Boys,109.77,6,Aaron Izaguirre,PSJA Memorial,105.69,208.65,158.76,213.19,580.6,Unlimited,SBD,M,
Boys,109.77,7,Viktor Rodriguez,PSJA Memorial,108.86,235.87,149.69,190.51,576.06,Unlimited,SBD,M,
Boys,109.77,8,Aaron Olivarez,Sharyland Pioneer,104.42,242.67,124.74,201.85,569.26,Unlimited,SBD,M,
Boys,109.77,9,Alexavier Gaono,Harlingen South,107.77,226.8,131.54,201.85,560.19,Unlimited,SBD,M,
Boys,109.77,10,Alexis Alaniz,Roma,105.6,201.85,127.01,199.58,528.44,Unlimited,SBD,M,
Boys,109.77,11,Damian Rodriguez,Mission Sharyland,100.79,215.46,131.54,174.63,521.63,Unlimited,SBD,M,
Boys,109.77,12,Daniel Perez,Edinburg Economedes,103.15,176.9,104.33,185.97,467.2,Unlimited,SBD,M,
Boys,109.77,DQ,Angel Gonzalez,Mission,101.2,235.87,131.54,,,Unlimited,SBD,M,
Boys,124.74,1,Carlos Rodriguez,McAllen Memorial,121.56,308.44,217.72,274.42,800.59,Unlimited,SBD,M,
Boys,124.74,2,Jason Escobar,McAllen Memorial,123.38,299.37,226.8,247.21,773.37,Unlimited,SBD,M,
Boys,124.74,3,Ezra Echavarria,Harlingen South,112.49,258.55,174.63,226.8,659.98,Unlimited,SBD,M,
Boys,124.74,4,Arturo Gonzalez,Edcouch-Elsa,117.3,285.76,127.01,238.14,650.91,Unlimited,SBD,M,
Boys,124.74,5,Demetrio Talamantes,McAllen Rowe,111.77,235.87,151.95,204.12,591.94,Unlimited,SBD,M,
Boys,124.74,6,Isaiah Hinajosa,Harlingen South,114.03,242.67,158.76,190.51,591.94,Unlimited,SBD,M,
Boys,124.74,7,Nick Thomas,PSJA Memorial,120.2,206.38,156.49,206.38,569.26,Unlimited,SBD,M,
Boys,124.74,8,Adrien Capetillo,PSJA Memorial,118.12,206.38,145.15,213.19,564.72,Unlimited,SBD,M,
Boys,124.74,9,Rupert Lopez,Edinburg,120.56,226.8,120.2,199.58,546.58,Unlimited,SBD,M,
Boys,124.74,10,Nick Paez,Roma,119.11,226.8,113.4,183.7,523.9,Unlimited,SBD,M,
Boys,124.74,11,George Garcia,Sharyland Pioneer,117.57,204.12,111.13,154.22,469.47,Unlimited,SBD,M,
Boys,139.71,1,Rosario Perez,Edcouch-Elsa,125.46,276.69,176.9,226.8,680.39,Unlimited,SBD,M,
Boys,139.71,2,Robert Cruz,San Benito,130.09,233.6,161.03,170.1,564.72,Unlimited,SBD,M,
Boys,139.71,3,Aaron Izaguirre,McAllen,129.27,215.46,142.88,192.78,551.11,Unlimited,SBD,M,
Boys,139.71,4,Edwin Aguillon,McAllen Rowe,138.71,174.63,133.81,195.04,503.49,Unlimited,SBD,M,
Boys,139.71,5,Robert Torres,Edinburg,127.64,204.12,106.59,190.51,501.22,Unlimited,SBD,M,
Boys,139.71,6,Diego Diaz,Roma,126.19,165.56,111.13,163.29,439.98,Unlimited,SBD,M,
Boys,139.71,DQ,Ethan Hinojosa,Sharyland Pioneer,126.82,226.8,,,,Unlimited,SBD,M,
Boys,139.71,DQ,Ezequiel Ozuna,McAllen Memorial,139.71,294.84,,,,Unlimited,SBD,M,
Boys,139.71,DQ,Rene Gomez,McAllen Memorial,134.44,306.17,,,,Unlimited,SBD,M,
Boys,139.71+,1,Adalberto Sanchez,Sharyland Pioneer,148.78,306.17,181.44,226.8,714.41,Unlimited,SBD,M,
Boys,139.71+,2,Rene Hernandez,Roma,150.05,238.14,147.42,181.44,566.99,Unlimited,SBD,M,
Boys,139.71+,3,Ivan Cantu,PSJA Memorial,147.51,201.85,147.42,204.12,553.38,Unlimited,SBD,M,
Boys,139.71+,4,Caleb Trevino,Harlingen South,144.79,165.56,124.74,156.49,446.79,Unlimited,SBD,M,
