Place,Name,Sex,BirthDate,Age,State,Equipment,Division,BodyweightKg,WeightClassKg,Squat1Kg,Squat2Kg,Squat3Kg,Squat4Kg,Best3SquatKg,Bench1Kg,Bench2Kg,Bench3Kg,Bench4Kg,Best3BenchKg,Deadlift1Kg,Deadlift2Kg,Deadlift3Kg,Deadlift4Kg,Best3DeadliftKg,TotalKg,Event
1,Brittany Young,F,1996-03-19,,TX,Sleeves,DT Novice,74.61,75,82.5,102.5,112.5,,112.5,45,55,-60,,55,110,125,-140,,125,292.5,SBD
1,Ronni Schaber,F,1997-09-05,,TX,Sleeves,DT Open,103.01,110,132.5,137.5,140,,140,75,-77.5,,,75,135,140,142.5,147.5,142.5,357.5,SBD
1,Jessica Fregene,F,2005-08-23,,TX,Sleeves,DT Teen,74.97,75,100,110,120,,120,55,57.5,60,,60,130,145,-147.5,,145,325,SBD
1,Azlyn Mayfield,F,2008-06-30,,,Single-ply,DT Teen,43.1,44,42.5,57.5,-67.5,,57.5,25,30,37.5,,37.5,60,72.5,-87.5,,72.5,167.5,SBD
1,Demaria Lydia,F,2006-06-13,,,Single-ply,DT Teen,99.7,100,125,142.5,152.5,,152.5,62.5,72.5,-75,,72.5,125,142.5,157.5,162.5,157.5,382.5,SBD
1,Alessandra Gutierrez,F,2005-12-20,,,Single-ply,DT Teen,124.2,125,137.5,160,182.5,,182.5,82.5,97.5,102.5,107.5,102.5,137.5,160,-187.5,,160,445,SBD
1,Brooke Humphries,F,1995-02-28,,TX,Sleeves,DT Open,61.6,67.5,,,,,,47.5,52.5,57.5,,57.5,115,122.5,-130,,122.5,180,BD
1,Emily Catt,F,2005-08-03,,TX,Sleeves,DT Open,88.9,90,,,,,,50,-52.5,-52.5,,50,77.5,82.5,-102.5,,82.5,132.5,BD
1,Chase Wilson,M,2002-04-10,,TX,Sleeves,DT Int,82.28,82.5,135,147.5,157.5,,157.5,92.5,100,-107.5,,100,172.5,187.5,200,-210,200,457.5,SBD
1,Sam Hootman,M,1996-04-10,,TX,Sleeves,DT Int,88.4,90,177.5,185,190,,190,122.5,130,-135,,130,200,210,220,,220,540,SBD
1,Clayton Stewart,M,2000-11-30,,TX,Sleeves,DT Int,96.2,100,110,127.5,137.5,,137.5,70,-82.5,-92.5,,70,115,142.5,,,142.5,350,SBD
1,Jayce Montelongo,M,2004-11-08,,TX,Sleeves,DT Int,108.18,110,207.5,217.5,220,,220,115,130,-137.5,,130,220,235,-245,,235,585,SBD
1,Nariman Kishkenalin,M,1987-08-15,,TX,Sleeves,DT Novice,99.8,100,182.5,185,190,,190,130,135,142.5,,142.5,225,230,237.5,240,237.5,570,SBD
1,Blaine Sowell,M,2007-07-02,,TX,Sleeves,DT Open,67.13,67.5,-142.5,152.5,-160,,152.5,82.5,87.5,92.5,-95,92.5,-182.5,197.5,210,-212.5,210,455,SBD
1,John Marks #1,M,2005-07-15,,TX,Sleeves,DT Open,81.01,82.5,210,230,-237.5,,230,95,100,-105,,100,220,237.5,245,-250,245,575,SBD
1,Andrew White,M,2004-01-21,,TX,Sleeves,DT Open,88.9,90,165,175,185,,185,102.5,112.5,-120,,112.5,-192.5,197.5,-220,,197.5,495,SBD
1,Dominique Timmons,M,1990-12-18,,TX,Sleeves,DT Sub Master,97.3,100,125,132.5,142.5,162.5,142.5,102.5,107.5,112.5,,112.5,197.5,215,230,-235.5,230,485,SBD
1,Matthew Herbert,M,1994-01-20,,TX,Sleeves,DT Open,120.2,125,125,135,137.5,,137.5,90,95,-100,,95,142.5,152.5,165,172.5,165,397.5,SBD
1,Blaine Sowell,M,2007-07-02,,TX,Sleeves,DT Teen,67.13,67.5,-142.5,152.5,-160,,152.5,82.5,87.5,92.5,-95,92.5,-182.5,197.5,210,-212.5,210,455,SBD
1,Victor Fernandez,M,2004-11-08,,TX,Sleeves,Int,101.4,110,267.5,-275,-275,,267.5,165,-180,-180,,165,272.5,-287.5,-287.5,,272.5,705,SBD
1,PJ Armstrong,M,1984-10-23,,TX,Sleeves,SM,86.5,90,132.5,152.5,170,,170,107.5,117.5,-132.5,,117.5,175,185,200,215,200,487.5,SBD
1,Nicholas Ramirez,M,2005-04-15,,TX,Sleeves,Teen,72.4,75,142.5,152.5,-162.5,,152.5,95,102.5,-105,,102.5,182.5,207.5,212.5,-217.5,212.5,467.5,SBD
1,Nathan Morales,M,,13,,Sleeves,DT Teen,53.5,56,,,,,,25,27.5,30,,30,25,27.5,30,32.5,30,60,BD
1,Mario Valle,M,1974-08-16,,TX,Sleeves,DT Master 1,89.9,90,,,,,,205,220,-232.5,,220,,,,,,220,B
DQ,Lance Bolay,M,1975-10-23,,TX,Sleeves,DT Master 1,99.38,100,,,,,,-152.5,-152.5,-152.5,,,,,,,,,B
1,Mario Valle,M,1974-08-16,,TX,Sleeves,DT Open,89.9,90,,,,,,205,220,-232.5,,220,,,,,,220,B
1,Mario Valle,M,1974-08-16,,TX,Sleeves,DT P/F/M,89.9,90,,,,,,205,220,-232.5,,220,,,,,,220,B
1,Caleb Bolay,M,2004-03-17,,TX,Single-ply,DT Int,89.31,90,,,,,,272.5,-282.5,-305,,272.5,,,,,,272.5,B
1,TaKory Cullins II,M,2005-02-25,,TX,Sleeves,DT Novice,71.8,75,,,,,,,,,,,182.5,187.5,192.5,,192.5,192.5,D
1,Tyler Livingston #2,M,2007-05-30,,TX,Sleeves,DT Teen,73.4,75,,,,,,,,,,,137.5,147.5,157.5,,157.5,157.5,D
