Division,WeightClassKg,Place,Name,Team,BodyweightKg,Best3SquatKg,Best3BenchKg,Best3DeadliftKg,TotalKg,Equipment,Event,Sex
Boys,51.71,1,Chris Medina,Brownsville Hanna,51.26,156.49,90.72,174.63,421.84,Single-ply,SBD,M
Boys,51.71,2,John Ortega,Mercedes,49.9,158.76,97.52,163.29,419.57,Single-ply,SBD,M
Boys,51.71,3,Fabian Garcia,Edinburg Idea College Prep,50.35,149.69,92.99,147.42,390.09,Single-ply,SBD,M
Boys,51.71,4,Mike Puente,PSJA Southwest,51.26,133.81,88.45,142.88,365.14,Single-ply,SBD,M
Boys,51.71,5,Jaden Lopez,Port Isabel,49.9,129.27,65.77,142.88,337.93,Single-ply,SBD,M
Boys,51.71,6,Jan Ramirez,PSJA North,51.71,124.74,70.31,129.27,324.32,Single-ply,SBD,M
Boys,51.71,7,Hisaac Guerrero,Rio Hondo,48.99,115.67,81.65,124.74,322.05,Single-ply,SBD,M
Boys,51.71,8,Chris Ortiz,Brownsville Porter,51.71,106.59,63.5,117.93,288.03,Single-ply,SBD,M
Boys,51.71,DQ,Joe Gayton,Donna,49.44,113.4,,,,Single-ply,SBD,M
Boys,55.79,1,Bryan Loera,Brownsville Pace,54.66,174.63,102.06,170.1,446.79,Single-ply,SBD,M
Boys,55.79,2,Tyrone Irizarry,Brownsville Lopez,55.34,163.29,95.25,185.97,444.52,Single-ply,SBD,M
Boys,55.79,3,Israel Ramos,Brownsville Porter,55.79,124.74,74.84,131.54,331.12,Single-ply,SBD,M
Boys,55.79,4,Jose Hernandez #17,Brownsville Rivera,53.07,95.25,74.84,122.47,292.57,Single-ply,SBD,M
Boys,55.79,5,Uziel Vasquez,Edinburg Idea College Prep,54.88,113.4,58.97,102.06,274.42,Single-ply,SBD,M
Boys,55.79,DQ,Jesus Serrata,Brownsville Lopez,55.43,,,,,Single-ply,SBD,M
Boys,59.87,1,Alex Rivera #1,Brownsville Lopez,59.47,192.78,111.13,219.99,523.9,Single-ply,SBD,M
Boys,59.87,2,Elijah Wheeler,Edinburg Quest College Prep,58.51,190.51,102.06,190.51,483.08,Single-ply,SBD,M
Boys,59.87,3,Jared Amaro,PSJA Memorial,59.56,156.49,88.45,163.29,408.23,Single-ply,SBD,M
Boys,59.87,4,Kevin Marroquin,PSJA Southwest,59.87,142.88,81.65,183.7,408.23,Single-ply,SBD,M
Boys,59.87,5,Carlos Ramos #1,Brownsville Porter,59.87,147.42,74.84,142.88,365.14,Single-ply,SBD,M
Boys,59.87,6,Nick Castillo,San Benito,58.06,122.47,86.18,142.88,351.53,Single-ply,SBD,M
Boys,59.87,7,Marcelino Alvarez,San Benito,59.87,92.99,74.84,129.27,297.1,Single-ply,SBD,M
Boys,59.87,DQ,Jacob Olivarez,PSJA Memorial,58.97,,,,,Single-ply,SBD,M
Boys,67.13,1,Javi Castro,Brownsville Lopez,66.22,222.26,124.74,204.12,551.11,Single-ply,SBD,M
Boys,67.13,2,Jose Salinas,Brownsville Pace,65.32,233.6,113.4,188.24,535.24,Single-ply,SBD,M
Boys,67.13,3,Adrian Torres,Rio Hondo,63.96,197.31,145.15,183.7,526.17,Single-ply,SBD,M
Boys,67.13,4,Aaron Lozano,Edinburg Quest College Prep,63.5,199.58,97.52,208.65,505.76,Single-ply,SBD,M
Boys,67.13,5,Eddie Luna,Mercedes,66.22,188.24,111.13,183.7,483.08,Single-ply,SBD,M
Boys,67.13,6,Zeke Rocha,Rio Hondo,66.22,170.1,124.74,167.83,462.66,Single-ply,SBD,M
Boys,67.13,7,Jackson Littles,PSJA North,64.86,174.63,97.52,165.56,437.72,Single-ply,SBD,M
Boys,67.13,8,Daniel Wolfe,Brownsville St. Joseph Academy,66.22,154.22,99.79,183.7,437.72,Single-ply,SBD,M
Boys,67.13,9,Frank Hernandez,Rio Hondo,63.96,158.76,108.86,158.76,426.38,Single-ply,SBD,M
Boys,67.13,10,Jonathon Ramirez,Donna,64.86,170.1,113.4,142.88,426.38,Single-ply,SBD,M
Boys,67.13,11,Juan Zavala,Brownsville Porter,65.77,142.88,83.91,145.15,371.95,Single-ply,SBD,M
Boys,67.13,12,Erasmo Jarillo,Brownsville Porter,67.13,129.27,92.99,140.61,362.87,Single-ply,SBD,M
Boys,67.13,13,Andrew Aguilar,Harlingen,63.05,120.2,74.84,142.88,337.93,Single-ply,SBD,M
Boys,67.13,14,John Olivares,Harlingen,66.68,102.06,79.38,151.95,333.39,Single-ply,SBD,M
Boys,67.13,15,Carl Bridges,Santa Rosa,63.5,131.54,83.91,115.67,331.12,Single-ply,SBD,M
Boys,67.13,16,Darren Valdez,Port Isabel,60.65,131.54,70.31,124.74,326.59,Single-ply,SBD,M
Boys,67.13,17,Ramses Vasquez,Edinburg Idea College Prep,60.78,111.13,65.77,92.99,269.89,Single-ply,SBD,M
Boys,67.13,DQ,Dante de la Garza,Port Isabel,65.05,131.54,,,,Single-ply,SBD,M
Boys,67.13,DQ,Alexis Pena,PSJA Southwest,63.96,,,,,Single-ply,SBD,M
Boys,67.13,DQ,Brian Garza,San Benito,62.14,,,,,Single-ply,SBD,M
Boys,74.84,1,Roman Garay,Brownsville Hanna,73.48,247.21,127.01,251.74,625.96,Single-ply,SBD,M
Boys,74.84,2,Andrew Nevarez,Edinburg Idea College Prep,73.48,254.01,127.01,222.26,603.28,Single-ply,SBD,M
Boys,74.84,3,Ozzy Garza,PSJA Southwest,73.94,226.8,149.69,217.72,594.21,Single-ply,SBD,M
Boys,74.84,4,Marcus Ysaguirre,Donna,71.21,226.8,113.4,195.04,535.24,Single-ply,SBD,M
Boys,74.84,5,Omar Diaz,PSJA Memorial,73.03,204.12,145.15,149.69,498.95,Single-ply,SBD,M
Boys,74.84,6,Giovanny Ahumada,Brownsville Porter,73.94,190.51,108.86,179.17,478.54,Single-ply,SBD,M
Boys,74.84,7,Joel Hernandez #1,Brownsville Pace,74.84,174.63,95.25,174.63,444.52,Single-ply,SBD,M
Boys,74.84,8,Byron Ayala,San Benito,73.94,163.29,99.79,163.29,426.38,Single-ply,SBD,M
Boys,74.84,9,Andres Herebia,San Benito,71.67,154.22,90.72,172.37,417.3,Single-ply,SBD,M
Boys,74.84,10,Shama Morato,Brownsville Porter,73.48,133.81,106.59,163.29,403.7,Single-ply,SBD,M
Boys,74.84,11,Lupe Pecina,Santa Rosa,68.49,131.54,90.72,136.08,358.34,Single-ply,SBD,M
Boys,74.84,12,Sergio Martinez,PSJA Memorial,68.95,124.74,88.45,142.88,356.07,Single-ply,SBD,M
Boys,74.84,13,Jorge Chavira,Brownsville Veterans Memorial,73.48,102.06,70.31,133.81,306.17,Single-ply,SBD,M
Boys,74.84,14,Jorge Aban,Port Isabel,71.21,106.59,68.04,122.47,297.1,Single-ply,SBD,M
Boys,74.84,15,Michael Schoonover,Harlingen,74.84,95.25,74.84,122.47,292.57,Single-ply,SBD,M
Boys,74.84,16,Skyler Alaniz,Santa Rosa,69.85,102.06,72.57,108.86,283.5,Single-ply,SBD,M
Boys,74.84,DQ,Miguel Herrera,Brownsville Pace,69.35,133.81,72.57,,,Single-ply,SBD,M
Boys,74.84,DQ,Brave Munoz,Santa Rosa,74.39,99.79,,,,Single-ply,SBD,M
Boys,82.1,1,Gilbert Sanchez,Brownsville Veterans Memorial,81.87,226.8,131.54,226.8,585.13,Single-ply,SBD,M
Boys,82.1,2,Alter Arenas,PSJA North,81.65,233.6,117.93,217.72,569.26,Single-ply,SBD,M
Boys,82.1,3,Guadalupe Lopez,Brownsville Veterans Memorial,79.38,204.12,124.74,213.19,542.04,Single-ply,SBD,M
Boys,82.1,4,Jonathan Mendoza,Port Isabel,80.29,204.12,120.2,206.38,530.7,Single-ply,SBD,M
Boys,82.1,5,Robert Hernandez,Los Fresnos,81.65,197.31,120.2,213.19,530.7,Single-ply,SBD,M
Boys,82.1,6,Brandon Adame,Mercedes,78.47,210.92,102.06,210.92,523.9,Single-ply,SBD,M
Boys,82.1,7,Daniel García #9,San Benito,80.29,190.51,140.61,183.7,514.83,Single-ply,SBD,M
Boys,82.1,8,Eleazar Rivas,Brownsville Porter,82.1,208.65,129.27,149.69,487.61,Single-ply,SBD,M
Boys,82.1,9,Rafa Pena,PSJA Southwest,78.02,181.44,106.59,176.9,464.93,Single-ply,SBD,M
Boys,82.1,10,Sebastian Zapata,Brownsville Veterans Memorial,78.93,176.9,95.25,192.78,464.93,Single-ply,SBD,M
Boys,82.1,11,Christian Garza,Rio Hondo,78.02,145.15,120.2,167.83,433.18,Single-ply,SBD,M
Boys,82.1,12,Daniel Garza,Brownsville St. Joseph Academy,76.66,151.95,83.91,183.7,419.57,Single-ply,SBD,M
Boys,82.1,13,Caleb Martinez,La Feria,76.2,163.29,95.25,154.22,412.77,Single-ply,SBD,M
Boys,82.1,14,Humberto Barrera,Rio Hondo,78.47,142.88,92.99,167.83,403.7,Single-ply,SBD,M
Boys,82.1,15,David Lopez #9,Harlingen,79.38,124.74,79.38,154.22,358.34,Single-ply,SBD,M
Boys,82.1,16,Caleb Garza,Santa Rosa,79.38,127.01,77.11,142.88,347,Single-ply,SBD,M
Boys,82.1,DQ,Gerardo Garza,Brownsville Pace,82.1,165.56,,,,Single-ply,SBD,M
Boys,89.81,1,Jonathon Buentello,Brownsville Lopez,89.45,265.35,142.88,256.28,664.51,Single-ply,SBD,M
Boys,89.81,2,Jose Guzman,Donna,87.54,263.08,145.15,240.4,648.64,Single-ply,SBD,M
Boys,89.81,3,Aaron Alvarez,PSJA North,87.54,263.08,142.88,224.53,630.49,Single-ply,SBD,M
Boys,89.81,4,Mathew Garza,Brownsville Rivera,87.09,217.72,129.27,244.94,591.94,Single-ply,SBD,M
Boys,89.81,5,Jose Hernandez #18,PSJA Memorial,88.77,229.06,147.42,199.58,576.06,Single-ply,SBD,M
Boys,89.81,6,Chris Jimenez,Brownsville Lopez,89.04,210.92,142.88,210.92,564.72,Single-ply,SBD,M
Boys,89.81,7,Kevin Cantu,PSJA North,89.36,215.46,120.2,165.56,501.22,Single-ply,SBD,M
Boys,89.81,8,Rafael Ramos,San Benito,88.9,158.76,102.06,190.51,451.32,Single-ply,SBD,M
Boys,89.81,9,Luis Mireles,PSJA Memorial,89.36,176.9,106.59,163.29,446.79,Single-ply,SBD,M
Boys,89.81,10,Anthony Finona,Port Isabel,88,149.69,97.52,174.63,421.84,Single-ply,SBD,M
Boys,89.81,11,Ethan de la Garza,Santa Rosa,88.45,158.76,70.31,151.95,381.02,Single-ply,SBD,M
Boys,89.81,12,Ricardo Alaniz,Brownsville St. Joseph Academy,88.5,131.54,92.99,147.42,371.95,Single-ply,SBD,M
Boys,89.81,13,Jorge Terrazas,Santa Rosa,88.45,136.08,83.91,142.88,362.87,Single-ply,SBD,M
Boys,89.81,14,Miguel Martinez,Port Isabel,83.01,131.54,83.91,138.35,353.8,Single-ply,SBD,M
Boys,89.81,15,Emiliano Sanchez,Edinburg Idea College Prep,82.55,142.88,86.18,113.4,342.46,Single-ply,SBD,M
Boys,89.81,DQ,Emiliano Peralez,PSJA Southwest,89.81,136.08,,,,Single-ply,SBD,M
Boys,89.81,DQ,Carlos Arellano,Brownsville Lopez,88.59,226.8,,,,Single-ply,SBD,M
Boys,89.81,DQ,Gabriel Martinez,Harlingen,86.64,151.95,102.06,,,Single-ply,SBD,M
Boys,89.81,DQ,Pablo Iracheta,Brownsville Pace,88.45,240.4,,,,Single-ply,SBD,M
Boys,89.81,DQ,Martin Vargas,Brownsville Porter,85.28,,,,,Single-ply,SBD,M
Boys,89.81,DQ,Justin Garza,Brownsville Rivera,87.54,,,,,Single-ply,SBD,M
Boys,99.79,1,Justin Flores,Rio Hondo,97.52,281.23,197.31,226.8,705.34,Single-ply,SBD,M
Boys,99.79,2,Brandon Esteves,Brownsville Hanna,93.89,260.82,165.56,265.35,691.73,Single-ply,SBD,M
Boys,99.79,3,Ryan Perales,Donna,94.8,254.01,158.76,195.04,607.81,Single-ply,SBD,M
Boys,99.79,4,Jose Raya,Brownsville Hanna,99.34,260.82,142.88,192.78,596.47,Single-ply,SBD,M
Boys,99.79,5,Anthony Martinez #11,Rio Hondo,98.88,217.72,145.15,190.51,553.38,Single-ply,SBD,M
Boys,99.79,6,Bryan Lopez,San Benito,99.7,190.51,124.74,197.31,512.56,Single-ply,SBD,M
Boys,99.79,7,Irvin Castro,La Feria,93.44,195.04,138.35,165.56,498.95,Single-ply,SBD,M
Boys,99.79,8,Jonah Hernandez,Port Isabel,97.07,215.46,120.2,163.29,498.95,Single-ply,SBD,M
Boys,99.79,9,George Garcia,La Feria,92.08,197.31,104.33,181.44,483.08,Single-ply,SBD,M
Boys,99.79,10,Erik Rangel,La Feria,90.26,188.24,127.01,165.56,480.81,Single-ply,SBD,M
Boys,99.79,11,Issac Martinez,Harlingen,92.99,163.29,124.74,192.78,480.81,Single-ply,SBD,M
Boys,99.79,12,Nathan Morales,La Feria,91.63,165.56,120.2,183.7,469.47,Single-ply,SBD,M
Boys,99.79,13,Noah Figueroa,Harlingen,98.88,158.76,104.33,185.97,449.06,Single-ply,SBD,M
Boys,99.79,14,Ryan Elizondo,Harlingen,92.99,140.61,113.4,161.03,415.04,Single-ply,SBD,M
Boys,99.79,15,Joe Hernandez #6,Harlingen,94.8,154.22,102.06,151.95,408.23,Single-ply,SBD,M
Boys,99.79,DQ,Victor Martinez,PSJA Memorial,98.43,147.42,,,,Single-ply,SBD,M
Boys,99.79,DQ,Robert Oseguedo,Harlingen,94.35,147.42,70.31,,,Single-ply,SBD,M
Boys,99.79,DQ,Noe Gonzalez,San Benito,97.98,,,,,Single-ply,SBD,M
Boys,99.79,DQ,Jeff Burton,Brownsville Pace,96.98,,,,,Single-ply,SBD,M
Boys,109.77,1,Jonathan De Los Reyes,Brownsville Hanna,109.77,260.82,147.42,238.14,646.37,Single-ply,SBD,M
Boys,109.77,2,Jose Garcia #25,Brownsville Lopez,109.32,269.89,147.42,215.46,632.76,Single-ply,SBD,M
Boys,109.77,3,Issac Rangel,Donna,105.23,278.96,138.35,199.58,616.89,Single-ply,SBD,M
Boys,109.77,4,Neyfis Castellanos,Port Isabel,107.05,265.35,147.42,192.78,605.55,Single-ply,SBD,M
Boys,109.77,5,Jose Solis,Brownsville Veterans Memorial,103.42,244.94,145.15,201.85,591.94,Single-ply,SBD,M
Boys,109.77,6,Rogelio Rada,Donna,104.33,222.26,136.08,219.99,578.33,Single-ply,SBD,M
Boys,109.77,7,Antonio Banda,Donna,101.83,226.8,138.35,197.31,562.45,Single-ply,SBD,M
Boys,109.77,8,Plake Fowkes,Brownsville St. Joseph Academy,106.41,219.99,133.81,201.85,555.65,Single-ply,SBD,M
Boys,109.77,9,Adam Rojas,PSJA Southwest,106.59,222.26,149.69,183.7,555.65,Single-ply,SBD,M
Boys,109.77,10,Manuel Garcia,Brownsville Porter,104.78,219.99,142.88,188.24,551.11,Single-ply,SBD,M
Boys,109.77,11,Joel Lopez,San Benito,108.41,226.8,136.08,174.63,537.51,Single-ply,SBD,M
Boys,109.77,12,John Aguilar,PSJA Southwest,103.87,183.7,113.4,199.58,496.68,Single-ply,SBD,M
Boys,109.77,13,Arturo Garcia,Brownsville Pace,103.42,208.65,124.74,156.49,489.88,Single-ply,SBD,M
Boys,109.77,14,Orlando Garcia,PSJA Memorial,107.5,199.58,124.74,165.56,489.88,Single-ply,SBD,M
Boys,109.77,15,Elvin Escoto,Harlingen,107.95,145.15,72.57,174.63,392.36,Single-ply,SBD,M
Boys,109.77,16,Hector Guerrero,Brownsville Rivera,105.19,124.74,92.99,149.69,367.41,Single-ply,SBD,M
Boys,109.77,DQ,Juan Payan,Brownsville Rivera,107.95,238.14,129.27,,,Single-ply,SBD,M
Boys,109.77,DQ,Gabriel Salinas,Donna,105.69,276.69,,,,Single-ply,SBD,M
Boys,109.77,DQ,Chris Martinez,PSJA North,102.06,,,,,Single-ply,SBD,M
Boys,124.74,1,Derek Tobar,Brownsville Veterans Memorial,124.74,244.94,170.1,204.12,619.15,Single-ply,SBD,M
Boys,124.74,2,Sergio Luna,Brownsville Hanna,115.67,263.08,154.22,199.58,616.89,Single-ply,SBD,M
Boys,124.74,3,Josue Ramirez,Brownsville Rivera,119.75,256.28,140.61,219.99,616.89,Single-ply,SBD,M
Boys,124.74,4,Kevin Lopez,PSJA Memorial,121.11,242.67,145.15,215.46,603.28,Single-ply,SBD,M
Boys,124.74,5,Adrian Salinas,Brownsville Hanna,124.74,235.87,133.81,229.06,598.74,Single-ply,SBD,M
Boys,124.74,6,Matthew Lopez #1,Rio Hondo,114.76,233.6,111.13,185.97,530.7,Single-ply,SBD,M
Boys,124.74,7,Esia Reyes,La Feria,112.49,210.92,115.67,195.04,521.63,Single-ply,SBD,M
Boys,124.74,8,Darian Castillo,Donna,114.31,233.6,113.4,174.63,521.63,Single-ply,SBD,M
Boys,124.74,9,Cesar Rangel,PSJA Memorial,111.13,181.44,122.47,190.51,494.42,Single-ply,SBD,M
Boys,124.74,10,Brandon Sandoval,Rio Hondo,115.21,151.95,111.13,142.88,405.97,Single-ply,SBD,M
Boys,124.74,11,Julio Mendoza,Port Isabel,114.31,145.15,72.57,138.35,356.07,Single-ply,SBD,M
Boys,124.74+,1,Sebastian Garcia,Brownsville Hanna,146.06,347,215.46,265.35,827.81,Single-ply,SBD,M
Boys,124.74+,2,Julio Hernandez,Brownsville Pace,139.25,340.19,192.78,272.16,805.13,Single-ply,SBD,M
Boys,124.74+,3,Lee Roy Carrizalez,PSJA Memorial,130.63,285.76,156.49,238.14,680.39,Single-ply,SBD,M
Boys,124.74+,4,Christopher Vargas,San Benito,127.91,263.08,156.49,249.48,669.05,Single-ply,SBD,M
Boys,124.74+,5,Josue Vaquera,PSJA Memorial,151.5,276.69,163.29,222.26,662.24,Single-ply,SBD,M
Boys,124.74+,6,Joel Iracheta,PSJA North,140.16,272.16,142.88,233.6,648.64,Single-ply,SBD,M
Boys,124.74+,7,Isaac Alaniz,Los Fresnos,130.63,251.74,140.61,206.38,598.74,Single-ply,SBD,M
Boys,124.74+,8,Carlos Pineda,Donna,151.5,226.8,113.4,222.26,562.45,Single-ply,SBD,M
Boys,124.74+,9,Triston Rosales,La Feria,130.63,238.14,127.01,183.7,548.85,Single-ply,SBD,M
Boys,124.74+,10,Jesus Garcia #8,Brownsville Rivera,141.07,192.78,142.88,210.92,546.58,Single-ply,SBD,M
Boys,124.74+,11,Chris Rojas,Santa Rosa,143.79,183.7,99.79,190.51,474,Single-ply,SBD,M
Boys,124.74+,12,Ryan Garcia #1,Edinburg Idea College Prep,126.55,161.03,90.72,176.9,428.64,Single-ply,SBD,M
Boys,124.74+,DQ,Joel Chapa,Brownsville Lopez,138.35,337.93,,,,Single-ply,SBD,M
Boys,124.74+,DQ,Justin Noel Garza,Brownsville Rivera,131.09,328.85,,,,Single-ply,SBD,M
Boys,124.74+,DQ,Frank Saucedo,PSJA North,141.52,,,,,Single-ply,SBD,M
